<?xml version="1.0" encoding="utf-8"?>
<!-- Generator: Adobe Illustrator 16.0.4, SVG Export Plug-In . SVG Version: 6.00 Build 0)  -->
<!DOCTYPE svg PUBLIC "-//W3C//DTD SVG 1.1//EN" "http://www.w3.org/Graphics/SVG/1.1/DTD/svg11.dtd">
<svg version="1.1" id="Layer_1" xmlns="http://www.w3.org/2000/svg" xmlns:xlink="http://www.w3.org/1999/xlink" x="0px" y="0px"
	 width="77.14px" height="247.747px" viewBox="0 0 77.14 247.747" enable-background="new 0 0 77.14 247.747" xml:space="preserve">
<g>
	<g>
		<path fill="#F8A586" d="M10.338,134.73c-0.128-0.205-0.286-0.401-0.458-0.587c-1.644-1.783-4.422-1.894-6.209-0.248
			c-3.453,3.192-4.592,8.292-2.895,12.994c0.817,2.28,3.337,3.465,5.623,2.639c2.28-0.824,3.463-3.342,2.637-5.622
			c-0.476-1.328-0.229-2.791,0.597-3.557C11.232,138.875,11.488,136.491,10.338,134.73z"/>
	</g>
	<g>
		<path fill="#11122D" d="M14.374,131.434c7.46-22.448,12.43-46.917,8.893-71.324c-0.467-2.928-3.043-4.868-5.733-4.331
			c-2.69,0.532-4.53,3.098-4.105,5.723c3.234,22.245-1.248,45.054-8.492,66.829L14.374,131.434z"/>
		<polygon fill="#EBE5E1" points="2.776,134.728 12.157,137.992 14.374,131.434 4.937,128.331 		"/>
	</g>
	<path fill="#202935" d="M24.622,227.489l0.161,12.41c0.027,1.992,1.784,3.58,3.923,3.555c2.143-0.032,3.858-1.665,3.831-3.65
		l-0.158-12.413L24.622,227.489z"/>
	<path fill="#3D265B" d="M34.026,234.364l-1.418-108.078c-0.039-2.985-2.678-5.376-5.9-5.337c-3.222,0.043-5.802,2.5-5.766,5.489
		l1.417,107.933L34.026,234.364z"/>
	<path fill="#11122D" d="M40.544,117.006c-10.391,0-18.82,9.419-18.82,21.032v4.295h37.643v-4.295
		C59.367,126.425,50.946,117.006,40.544,117.006z"/>
	<path fill="#202935" d="M53.416,228.477l0.675,12.546c0.116,2.012,1.974,3.537,4.14,3.407c2.17-0.133,3.837-1.856,3.719-3.854
		l-0.669-12.497L53.416,228.477z"/>
	<path fill="#3D265B" d="M62.975,233.552c-1.905-36.687-3.174-70.573-4.031-107.34c-0.062-2.971-2.719-5.322-5.944-5.264
		c-3.222,0.062-5.784,2.539-5.719,5.522c0.856,36.754,2.122,70.569,4.03,107.332L62.975,233.552z"/>
	<path fill="#11122D" d="M15.233,242.006c2.039,0,3.718-1.547,3.932-3.533l0.003-0.641c0-1.293,1.052-2.348,2.345-2.348h1.412
		c0.91,0,1.652,0.74,1.652,1.654v0.449c0.089,1.476,1.29,2.653,2.788,2.653h3.98c1.409,0,2.553,1.144,2.553,2.556
		c0,2.45,0,5.776,0,5.776H17.652h-6.191H5.267v-1.348v-0.16c0-2.795,2.265-5.06,5.062-5.06H15.233z"/>
	<path fill="#3D265B" d="M44.247,241.96c2.06,0,3.756-1.558,3.965-3.557l0.003-0.646c0-1.307,1.061-2.365,2.366-2.365h2.708
		c0.916,0,1.665,0.746,1.665,1.665v0.455c0.083,1.483,1.299,2.672,2.803,2.672h4.009c1.418,0,2.571,1.15,2.571,2.569
		c0,2.466,0,5.819,0,5.819H50.548h-6.233h-6.238v-1.358v-0.16c0-2.816,2.28-5.095,5.094-5.095H44.247z"/>
	<path fill="#EBE5E1" d="M35.485,49.462l-3.688,3.824c-4.937,0.469-9.945,1.327-14.611,2.537l1.495,21.545v55.329h43.406
		l-0.003-55.329l1.489-21.545c-7.416-1.926-15.702-2.955-23.192-2.955L35.485,49.462z"/>
	<path fill="#D8D1BD" d="M31.734,53.293l0.003,10.66l-6.298-7.737l-0.181-2.079C27.407,53.786,29.577,53.499,31.734,53.293z"/>
	<g>
		<g>
			<g>
				<path fill="#F8A586" d="M40.38,32.023c2.714,0,4.904,2.195,4.904,4.9V53.33l-7.805,4.901l-1.995-4.901V36.923
					C35.485,34.218,37.675,32.023,40.38,32.023z"/>
			</g>
		</g>
	</g>
	<g>
		<g>
			<path fill="#F8A586" d="M21.947,13.006V33.55c0.443,4.941,2.788,9.493,6.295,12.604c0.526,0.11,8.403,0,8.524,0
				c8.711,0,15.776-7.061,15.776-15.776V13.006H21.947z"/>
			<g>
				<g>
					<g>
						<path fill="#F8A586" d="M54.159,24.946c2.434,0,4.407,1.972,4.407,4.4c0,2.434-1.973,4.4-4.407,4.4h-7.16l0.265-8.801H54.159z
							"/>
					</g>
				</g>
			</g>
			<path fill="#11122D" d="M17.399,1.531h25.332c4.108,0,7.734,1.972,10.014,5.016c0.889-1.19,2.294-1.976,3.896-1.976
				c0.515,0,1.014,0.086,1.483,0.236l-1.388,1.39c-0.871,0.869-1.581,2.584-1.581,3.813v2.657c0,0.033,0.006,0.067,0.015,0.104
				V24.98h-1.753v3.144c0,1.449-1.174,2.618-2.619,2.618c-1.447,0-2.615-1.169-2.615-2.618v-1.891
				c-0.354-1.974-2.072-3.475-4.146-3.479v-5.184c-0.348-1.97-2.072-3.466-4.143-3.467v-0.03H21.938
				c-2.892,0-5.267-2.199-5.549-5.019h4.574C19.004,7.079,17.697,4.457,17.399,1.531z"/>
			<circle fill="#11122D" cx="26.858" cy="23.456" r="1.054"/>
			<path fill="#11122D" d="M37.078,23.456c0,0.582,0.476,1.053,1.055,1.053c0.585,0,1.049-0.471,1.049-1.053
				c0-0.581-0.463-1.053-1.049-1.053C37.554,22.403,37.078,22.875,37.078,23.456z"/>
		</g>
		<path fill="#F8F3E8" d="M38.276,34.167c0,2.862-2.318,5.185-5.187,5.185c-2.859,0-5.177-2.322-5.177-5.185H38.276z"/>
	</g>
	<polygon fill="#EBE5E1" points="43.017,63.954 49.683,53.309 45.558,49.462 37.479,58.231 	"/>
	<polygon fill="#D8D1BD" points="43.017,63.954 37.399,58.33 31.773,63.954 	"/>
	<path fill="#3D265B" d="M49.653,53.361L31.737,82.016V53.293c-4.919,0.47-9.903,1.324-14.552,2.53l0.134,21.545v59.26h46.125
		l-1.361-24.903l1.361-34.356l0.128-21.545C59.123,54.669,54.367,53.843,49.653,53.361z"/>
	<path fill="#929497" d="M34.341,88.235c0,0.928-0.746,1.685-1.683,1.685c-0.927,0-1.679-0.757-1.679-1.685
		c0-0.93,0.752-1.683,1.679-1.683C33.595,86.552,34.341,87.305,34.341,88.235z"/>
	<path fill="#929497" d="M34.341,101.398c0,0.93-0.746,1.687-1.683,1.687c-0.927,0-1.679-0.757-1.679-1.687
		c0-0.928,0.752-1.681,1.679-1.681C33.595,99.717,34.341,100.47,34.341,101.398z"/>
	<polygon fill="#11122D" points="34.121,65.162 31.773,73.113 31.737,82.016 37.084,73.461 36.296,65.231 40.859,61.716 
		37.473,58.622 34.1,61.712 	"/>
	<path fill="#11122D" d="M61.117,115.283c0,1.674-1.35,3.028-3.026,3.028H46.574c-1.667,0-3.032-1.354-3.032-3.028l0,0
		c0-1.672,1.364-3.029,3.032-3.029h11.517C59.768,112.253,61.117,113.611,61.117,115.283L61.117,115.283z"/>
	<path fill="#3D265B" d="M61.117,112.253c0,1.67-1.35,3.029-3.026,3.029H46.574c-1.667,0-3.032-1.359-3.032-3.029l0,0
		c0-1.674,1.364-3.03,3.032-3.03h11.517C59.768,109.223,61.117,110.58,61.117,112.253L61.117,112.253z"/>
	<polygon fill="#11122D" points="31.487,136.962 39.48,136.962 31.487,113.766 	"/>
	<g>
		<g>
			<path fill="#F8A586" d="M71.591,148.458c1.799,0.229,3.623-0.528,4.627-2.04c0.826-1.249,1.344-2.58,0.82-4.15
				c-0.834-2.513-1.158-2.395-1.164-10.186l-6.599-0.041c-4.307,10.436-2.58,8.405-2.081,12.138c0.3,2.209,1.986,3.973,4.194,4.254
				L71.591,148.458z"/>
		</g>
		<path fill="#3D265B" d="M77.14,129.922c1.284-23.622-0.365-48.536-10.209-71.147c-1.225-2.701-4.22-3.894-6.672-2.669
			c-2.455,1.221-3.555,4.183-2.452,6.601c8.979,20.608,10.661,43.792,9.413,66.707L77.14,129.922z"/>
		<polygon fill="#EBE5E1" points="66.814,136.154 76.727,136.832 77.14,129.922 67.219,129.414 		"/>
	</g>
</g>
</svg>
