<?xml version="1.0" encoding="utf-8"?>
<!-- Generator: Adobe Illustrator 16.0.4, SVG Export Plug-In . SVG Version: 6.00 Build 0)  -->
<!DOCTYPE svg PUBLIC "-//W3C//DTD SVG 1.1//EN" "http://www.w3.org/Graphics/SVG/1.1/DTD/svg11.dtd">
<svg version="1.1" id="Layer_1" xmlns="http://www.w3.org/2000/svg" xmlns:xlink="http://www.w3.org/1999/xlink" x="0px" y="0px"
	 width="160.881px" height="322.469px" viewBox="0 0 160.881 322.469" enable-background="new 0 0 160.881 322.469"
	 xml:space="preserve">
<g>
	<g>
		<g>
			<path fill="#F8A586" d="M68.565,33.24c-0.102-0.295-0.238-0.586-0.395-0.873c-1.523-2.723-4.967-3.698-7.693-2.176
				c-5.289,2.957-8.258,8.999-7.539,15.396c0.342,3.1,3.137,5.34,6.244,4.992c3.105-0.345,5.342-3.141,4.992-6.244
				c-0.199-1.807,0.551-3.562,1.816-4.273C68.435,38.701,69.47,35.792,68.565,33.24z"/>
		</g>
		<path fill="none" stroke="#11122D" stroke-width="11.9405" stroke-linecap="round" stroke-miterlimit="10" d="M58.433,71.636
			l0.146,21.79c0.008,1.799,0.479,3.565,1.367,5.131l0,0c3.879,6.846,13.621,7.178,17.963,0.612L90.603,79.97"/>
		
			<line fill="none" stroke="#11122D" stroke-width="11.9405" stroke-miterlimit="10" x1="58.614" y1="53.698" x2="58.433" y2="71.636"/>
		
			<line fill="none" stroke="#EBE5E1" stroke-width="11.9405" stroke-miterlimit="10" x1="58.687" y1="46.463" x2="58.614" y2="53.698"/>
	</g>
	<path fill="#6B9C40" d="M97.767,295.324l0.209,15.98c0.031,2.559,2.297,4.605,5.051,4.572c2.758-0.039,4.969-2.14,4.934-4.695
		l-0.205-15.982L97.767,295.324z"/>
	<path fill="#2E2B33" d="M109.876,304.176l-1.828-139.133c-0.045-3.844-3.443-6.92-7.596-6.869
		c-4.146,0.057-7.463,3.217-7.422,7.065l1.824,138.948L109.876,304.176z"/>
	<path fill="#11122D" d="M118.267,153.095c-13.375,0-24.229,12.128-24.229,27.077v5.53h48.457v-5.53
		C142.495,165.223,131.651,153.095,118.267,153.095z"/>
	<path fill="#6B9C40" d="M134.839,296.596l0.865,16.154c0.152,2.586,2.543,4.553,5.328,4.385c2.793-0.172,4.932-2.392,4.793-4.963
		l-0.867-16.089L134.839,296.596z"/>
	<path fill="#2E2B33" d="M147.142,303.131c-2.453-47.227-4.088-90.853-5.188-138.183c-0.082-3.825-3.506-6.853-7.652-6.774
		c-4.146,0.08-7.445,3.266-7.363,7.107c1.1,47.316,2.73,90.846,5.188,138.172L147.142,303.131z"/>
	<path fill="#11122D" d="M85.675,314.017c2.625,0,4.797-1.993,5.066-4.55l0.006-0.826c0-1.664,1.355-3.021,3.021-3.021h1.814
		c1.174,0,2.131,0.951,2.131,2.129v0.578c0.113,1.901,1.662,3.418,3.588,3.418h5.121c1.814,0,3.287,1.473,3.287,3.285
		c0,3.158,0,7.439,0,7.439H88.79h-7.965h-7.971v-1.733v-0.206c0-3.596,2.916-6.513,6.514-6.513H85.675z"/>
	<path fill="#2E2B33" d="M123.042,313.955c2.639,0,4.822-2.005,5.09-4.576l0.01-0.833c0-1.681,1.367-3.043,3.047-3.043h3.477
		c1.189,0,2.145,0.96,2.145,2.142v0.586c0.111,1.91,1.68,3.441,3.615,3.441h5.158c1.828,0,3.314,1.479,3.314,3.305
		c0,3.176-0.006,7.492-0.006,7.492h-17.75h-8.021h-8.031v-1.749v-0.207c0-3.624,2.938-6.558,6.557-6.558H123.042z"/>
	<path fill="#EBE5E1" d="M111.755,66.145l-4.748,4.926c-6.359,0.604-12.803,1.705-18.809,3.263l1.916,27.736l0.008,71.228h55.871
		v-71.228l1.381-19.946c0.314-4.598-2.871-8.704-7.4-9.543c-7.297-1.342-14.881-2.049-21.92-2.049L111.755,66.145z"/>
	<path fill="#D8D1BD" d="M106.923,71.077l0.002,13.722l-8.104-9.957l-0.236-2.679C101.356,71.711,104.144,71.34,106.923,71.077z"/>
	<g>
		<g>
			<g>
				<path fill="#F8A586" d="M118.058,43.693c3.484,0,6.312,2.824,6.312,6.309v21.121l-10.053,6.31l-2.562-6.31V50.002
					C111.755,46.518,114.575,43.693,118.058,43.693z"/>
			</g>
		</g>
	</g>
	<g>
		<g>
			<path fill="#F8A586" d="M94.325,19.213v26.446c0.568,6.364,3.592,12.222,8.1,16.228c0.68,0.142,10.822,0,10.975,0
				c11.221,0,20.307-9.091,20.307-20.311V19.213H94.325z"/>
			<g>
				<g>
					<g>
						<path fill="#F8A586" d="M135.794,34.583c3.131,0,5.676,2.537,5.676,5.663c0,3.133-2.545,5.666-5.676,5.666h-9.217l0.34-11.329
							H135.794z"/>
					</g>
				</g>
			</g>
			<path fill="#11122D" d="M88.474,4.439h32.613c5.277,0,9.949,2.541,12.883,6.455c1.141-1.529,2.953-2.539,5.014-2.539
				c0.668,0,1.311,0.109,1.91,0.303l-1.779,1.789c-1.123,1.117-2.037,3.324-2.037,4.91v3.419c0.008,0.047,0.01,0.089,0.02,0.131
				v15.718h-2.258v4.047c0,1.869-1.514,3.377-3.371,3.377c-1.867,0-3.371-1.508-3.371-3.377v-2.433
				c-0.455-2.54-2.662-4.472-5.338-4.476V25.09c-0.451-2.535-2.662-4.461-5.332-4.465v-0.037H94.315
				c-3.727,0-6.783-2.828-7.145-6.463h5.889C90.538,11.58,88.851,8.205,88.474,4.439z"/>
			<path fill="#11122D" d="M99.292,32.667c0,0.746,0.6,1.354,1.355,1.354c0.75,0,1.359-0.608,1.359-1.354
				c0-0.751-0.609-1.358-1.359-1.358C99.892,31.309,99.292,31.916,99.292,32.667z"/>
			<path fill="none" stroke="#11122D" stroke-width="1.7058" stroke-linecap="round" stroke-miterlimit="10" d="M112.673,33.375
				c0.369-0.916,1.268-1.57,2.334-1.584c1.068-0.014,1.986,0.619,2.373,1.521"/>
		</g>
		<path fill="#F8F3E8" d="M115.347,46.457c0,3.684-2.986,6.672-6.672,6.672c-3.689,0-6.668-2.988-6.668-6.672H115.347z"/>
	</g>
	<g>
		<path fill="#CB972B" d="M96.032,28.487h3.258c2.439,0,4.424,1.982,4.424,4.421c0,2.433-1.984,4.41-4.424,4.41h-3.26L96.032,28.487
			z"/>
		<path fill="#B7852C" d="M96.548,28.487h2.352c1.006,1.198,1.627,2.733,1.627,4.421c0,1.684-0.617,3.217-1.627,4.41h-2.352
			c1.441-0.945,2.4-2.562,2.4-4.41C98.948,31.055,97.989,29.438,96.548,28.487z"/>
		<path fill="#CB972B" d="M93.476,27.271c3.113,0,5.635,2.529,5.635,5.637c0,3.103-2.521,5.631-5.635,5.631H75.698v-0.841v-8.747
			l0,0v-1.68H93.476z"/>
		<path fill="#B7852C" d="M76.876,32.908c0-2.288,0.488-4.323-1.178-5.637h2.398c1.266,1.53,2.029,3.497,2.029,5.637
			c0,2.133-0.758,4.098-2.029,5.631h-2.398C77.364,37.227,76.876,35.191,76.876,32.908z"/>
		<path fill="#CB972B" d="M46.097,24.662h24.287c4.545,0,8.242,3.699,8.242,8.246c0,4.54-3.697,8.24-8.242,8.24H46.097V24.662z"/>
		<path fill="#B7852C" d="M54.972,32.908c0-3.482-1.844-6.528-4.604-8.246h3.105c2.117,2.112,3.43,5.027,3.43,8.246
			c0,3.213-1.312,6.129-3.43,8.24h-3.105C53.128,39.436,54.972,36.386,54.972,32.908z"/>
		<path fill="#CB972B" d="M43.567,21.444c6.314,0,11.457,5.142,11.457,11.464c0,6.316-5.143,11.459-11.457,11.459H21.401V21.444
			H43.567z"/>
		<path fill="#B7852C" d="M11.14,32.908c0-5.701,4.623-10.324,10.324-10.324c5.699,0,10.322,4.623,10.322,10.324
			c0,5.697-4.623,10.318-10.322,10.318C15.763,43.227,11.14,38.605,11.14,32.908z"/>
		<path fill="#51A8B7" d="M14.215,32.908c0-5.036,4.083-9.111,9.11-9.111c5.031,0,9.109,4.075,9.109,9.111
			c0,5.031-4.078,9.105-9.109,9.105C18.298,42.014,14.215,37.939,14.215,32.908z"/>
		<path fill="#85D1D4" d="M19.493,32.908c0-3.579,2.898-6.475,6.467-6.475c3.57,0,6.475,2.896,6.475,6.475
			c0,3.572-2.904,6.47-6.475,6.47C22.392,39.378,19.493,36.48,19.493,32.908z"/>
		<path fill="#EAAB57" d="M21.464,44.367c-6.322,0-11.461-5.143-11.461-11.459c0-6.322,5.14-11.464,11.461-11.464
			c6.318,0,11.459,5.142,11.459,11.464C32.923,39.225,27.782,44.367,21.464,44.367L21.464,44.367z M21.464,23.725
			c-5.065,0-9.182,4.12-9.182,9.184c0,5.062,4.117,9.178,9.182,9.178c5.061,0,9.18-4.116,9.18-9.178
			C30.644,27.845,26.524,23.725,21.464,23.725L21.464,23.725z"/>
	</g>
	<polygon fill="#EBE5E1" points="121.442,84.799 130.032,71.096 124.722,66.145 114.317,77.433 	"/>
	<polygon fill="#D8D1BD" points="121.442,84.799 114.21,77.559 106.972,84.799 	"/>
	<path fill="#2E2B33" d="M129.989,71.166l-23.064,36.884V71.077c-6.332,0.604-12.748,1.702-18.727,3.256l0.162,27.736l0.01,76.29
		h59.379l-1.756-32.062l1.75-44.228l0.125-20.429c0.02-4.372-3.074-8.149-7.367-8.956C137.034,72.03,133.503,71.525,129.989,71.166z
		"/>
	<path fill="#11122D" d="M88.202,75.133c0.729,1.906,1.662,3.707,2.836,5.373c3.885,5.51,9.648,8.956,15.887,10.02v15.684
		c-0.4,0.016-0.803,0.058-1.209,0.058c-6.232,0-12.307-1.989-17.361-5.69L88.202,75.133z"/>
	<path fill="#11122D" d="M118.351,89.779c0.699-0.217,1.379-0.451,2.059-0.73l18.592-7.641l0,0c0,8.219-4.967,15.626-12.561,18.748
		l-9.385,3.856c-2.924,1.2-5.936,1.891-8.939,2.139L118.351,89.779z"/>
	<path fill="#929497" d="M110.282,116.058c0,1.198-0.967,2.169-2.166,2.169c-1.197,0-2.166-0.971-2.166-2.169
		s0.969-2.165,2.166-2.165C109.315,113.893,110.282,114.859,110.282,116.058z"/>
	<path fill="#929497" d="M110.282,133.006c0,1.195-0.967,2.166-2.166,2.166c-1.197,0-2.166-0.971-2.166-2.166
		s0.969-2.164,2.166-2.164C109.315,130.842,110.282,131.811,110.282,133.006z"/>
	<polygon fill="#6B9C40" points="109.999,86.355 106.972,96.59 106.925,108.05 113.81,97.039 112.796,86.443 118.665,81.92 
		114.315,77.939 109.972,81.913 	"/>
	<path fill="#11122D" d="M144.755,150.879c0,2.155-1.738,3.896-3.902,3.896h-14.816c-2.16,0-3.908-1.741-3.908-3.896l0,0
		c0-2.154,1.748-3.901,3.908-3.901h14.816C143.017,146.978,144.755,148.725,144.755,150.879L144.755,150.879z"/>
	<path fill="#2E2B33" d="M144.755,146.978c0,2.154-1.738,3.901-3.902,3.901h-14.816c-2.16,0-3.908-1.747-3.908-3.901l0,0
		c0-2.155,1.748-3.899,3.908-3.899h14.816C143.017,143.078,144.755,144.822,144.755,146.978L144.755,146.978z"/>
	<polygon fill="#11122D" points="106.604,178.789 116.897,178.789 106.604,148.925 	"/>
	<g>
		<path fill="#F8A586" d="M69.79,28.125c0.102-0.299,0.23-0.59,0.391-0.872c1.529-2.729,4.971-3.701,7.697-2.178
			c5.293,2.957,8.248,8.999,7.539,15.393c-0.342,3.104-3.145,5.341-6.246,4.997c-3.104-0.344-5.336-3.142-4.992-6.244
			c0.197-1.81-0.547-3.566-1.811-4.274C69.921,33.581,68.884,30.674,69.79,28.125z"/>
	</g>
	
		<line fill="none" stroke="#F1F1F2" stroke-width="11.9405" stroke-linecap="round" stroke-miterlimit="10" x1="81.593" y1="46.311" x2="80.786" y2="43.154"/>
	<g>
		<path fill="none" stroke="#2E2B33" stroke-width="11.9405" stroke-linecap="round" stroke-miterlimit="10" d="M141.558,79.189
			L111.87,91.389c-7.111,2.924-14.979,0.326-19.127-5.557c-1.086-1.547-1.922-3.314-2.414-5.27l-8.26-32.648"/>
	</g>
</g>
</svg>
